
 ======================================= Pipeline Succeeded========================================
| Started: 2018-05-29 22:22:00                                                                     |
| Ended: 2018-05-30 09:03:11                                                                       |
| Run Time: 10 hours, 41  minutes                                                                  |
 ==================================================================================================

  Stage  | Count |          Min          |         Mean          |          Max          | Weight
 ------------------------------------------------------------------------------------------------
 realign | 1     | 10 hours, 41  minutes | 10 hours, 41  minutes | 10 hours, 41  minutes | 38465 

